<?xml version="1.0" encoding="utf-8"?>
<svg version="1.1" width="3508px" height="1099px" viewBox="0 0 3508 1099" preserveAspectRatio="xMidYMid meet" xmlns="http://www.w3.org/2000/svg" xmlns:bx="https://boxy-svg.com">
  <defs>
    <linearGradient id="color-0" bx:pinned="true">
      <stop style="stop-color: rgb(254, 252, 255);"/>
    </linearGradient>
    <linearGradient id="color-1" bx:pinned="true">
      <stop style="stop-color: rgb(244, 234, 253)"/>
    </linearGradient>
    <linearGradient id="color-2" bx:pinned="true">
      <stop style="stop-color: rgb(230, 206, 253);"/>
    </linearGradient>
    <linearGradient id="color-3" bx:pinned="true">
      <stop style="stop-color: rgb(2, 2, 2)"/>
    </linearGradient>
    <linearGradient id="color-4" bx:pinned="true">
      <stop style="stop-color: rgb(217, 217, 217);"/>
    </linearGradient>
    <linearGradient id="color-5" bx:pinned="true">
      <stop style="stop-color: rgb(181, 187, 226);"/>
    </linearGradient>
    <linearGradient gradientUnits="userSpaceOnUse" x1="1754" y1="0" x2="1754" y2="1099" id="gradient-0" gradientTransform="matrix(0.993458, -0.114201, 0.08378, 0.728823, 468.758612, 504.17652)">
      <stop offset="0" style="stop-color: rgb(254, 252, 255);"/>
      <stop offset="0.728" style="stop-color: rgb(233, 209, 255);"/>
      <stop offset="1" style="stop-color: rgb(230, 206, 253);"/>
    </linearGradient>
  </defs>
  <rect width="3508" height="1099" style="paint-order: fill; fill: url(#gradient-0);">
    <title>Gradiant</title>
  </rect>
  <g fill="#bbbad9" style="">
    <title>Coagul</title>
    <path d="M 1485.4 840.5 C 1466 836.3 1454.6 826.4 1450.4 810 C 1448.2 801.2 1449 783.5 1452 773 C 1456 759.6 1463 746.5 1471.7 736.3 C 1475.5 731.8 1476.7 731 1479.6 731 C 1482.8 731 1483 731.2 1483 734.4 C 1483 737.8 1481.7 741.8 1472.6 765.8 C 1466.4 782.3 1464.6 791.1 1465.9 798.5 C 1468.8 814.1 1478.6 824.3 1495.8 829.6 C 1515 835.5 1546.8 830.8 1577.9 817.4 C 1601.8 807.1 1634.1 787.7 1653.2 772.4 C 1676 753.9 1704.5 724.1 1717.3 705.1 C 1719.4 702 1722 698.6 1722.9 697.5 C 1724.4 695.8 1730.8 686 1736.1 677.2 C 1743.8 664.4 1755.3 641.6 1754.3 641.3 C 1753.1 640.9 1714.2 652 1702.5 656 C 1693.4 659.2 1681.4 660.8 1676.6 659.6 C 1674.6 659.1 1674 658.3 1674 656.3 L 1674 653.6 L 1672.3 656 C 1665.8 665.6 1637.2 696.5 1634.9 696.5 C 1634.5 696.5 1631.1 698.7 1627.3 701.5 C 1614.4 710.9 1607.2 715 1603.5 715 C 1600.2 715 1600 714.8 1600 711.5 C 1600 708.6 1601 707.2 1607.1 701.3 C 1632.3 677.3 1635.5 673.4 1645.9 653.8 C 1656.9 633.2 1662.8 612.2 1664.5 587.5 C 1666.2 564.4 1659.3 528.5 1647.6 499.4 C 1641.7 484.5 1638.3 478.1 1627.8 461.1 C 1622.9 453.2 1616.8 443 1614.3 438.3 L 1609.8 429.9 L 1607.3 431.6 C 1605.9 432.5 1603.4 434.4 1601.8 435.8 C 1595.7 441.2 1590.6 444 1586.5 444 C 1582.7 444 1582.3 444.3 1578.9 449.8 C 1565.9 470.3 1547.6 508.6 1542.2 526.5 C 1533.8 554.7 1530.6 585.7 1532.1 624.5 C 1534 674.2 1540.3 706.6 1551.4 724.4 C 1559.4 737.2 1568.2 742.4 1577.6 740.1 C 1592.1 736.4 1613.5 721.5 1634.8 700.2 C 1638.3 696.7 1641.4 694.1 1641.7 694.4 C 1642.1 694.7 1643.8 693.9 1645.6 692.5 C 1647.4 691.1 1650.2 690 1651.9 690 C 1654.9 690 1655 690.2 1655 694.1 C 1655 697.6 1654.2 699.2 1649.1 705.4 C 1641.3 714.9 1627.3 729 1618.5 736.3 C 1614.7 739.5 1610.6 742.9 1609.5 743.9 C 1605.7 747.3 1591.5 756.7 1584 760.8 C 1568.1 769.5 1554.1 772.7 1543.1 770 C 1530.8 767.1 1520.1 756.1 1511.1 736.9 C 1501.6 716.6 1496.9 697.2 1494.8 668.9 L 1493.6 653.4 L 1487.5 663.4 C 1482.3 672.1 1471.1 687.9 1465.3 695.1 C 1444 721.2 1422.6 738.8 1397.6 751.2 C 1377.4 761.1 1362.2 765 1344 765 C 1321.9 765 1308 758.7 1294.8 742.6 C 1288.5 735 1285.3 729.2 1280.7 717.4 C 1273.9 699.6 1272 688.5 1272 663.7 C 1272 631.7 1276.3 605.6 1287.2 572 C 1292.9 554.3 1306.4 523.8 1314.8 509.5 C 1315.8 507.9 1318.5 503.1 1320.9 499 C 1345.3 457.4 1375.1 425.9 1403.5 411.7 C 1415.4 405.8 1422.4 403.8 1434.4 403.3 C 1454.6 402.3 1464.3 406.2 1479.7 421.5 C 1489.8 431.4 1490 431.7 1490 436.2 C 1490 439.1 1489.4 441.2 1488.4 442 C 1487.6 442.8 1485.1 446 1482.8 449.2 C 1479 454.5 1478.4 455 1474.9 455 C 1471.2 455 1470.8 454.6 1466 447.5 C 1463.3 443.4 1461 439.7 1461 439.3 C 1461 438.8 1460.1 437.7 1459.1 436.8 C 1458.1 435.9 1456.8 434.5 1456.4 433.8 C 1454.7 430.9 1446.2 425.3 1441.7 424.1 C 1438 423 1436.1 423 1431.8 424 C 1397.4 432.1 1356.4 485.1 1330.5 555 C 1321.2 580 1315.6 608.8 1315.6 631.5 C 1315.6 647.2 1319.2 675.4 1322.6 687.1 C 1326.6 700.4 1336 713.4 1345 718 C 1354.3 722.8 1373.3 724.9 1376.6 721.5 C 1377.4 720.7 1386.2 718.6 1387.1 720.1 C 1387.7 721.2 1401.7 717.1 1409 713.7 C 1426.8 705.4 1436.2 697.4 1456.4 673.5 C 1476.4 649.6 1484.1 641.5 1491 636.5 C 1493.6 634.7 1493.9 633.8 1494.4 626 C 1497.7 582.4 1504.7 551.7 1520.6 510.4 C 1533.7 476.3 1558.2 435.7 1578.7 414 C 1588 404.1 1592.3 401.8 1602.1 401.2 C 1609.6 400.8 1610 400.8 1610 402.9 C 1610 404 1610.1 405 1610.3 405 C 1610.4 405 1612.3 404.3 1614.5 403.5 C 1616.8 402.7 1622.2 402.1 1627.1 402 C 1634.7 402 1636.4 402.3 1641.7 405 C 1662.3 415.3 1694 470.2 1702.8 511 C 1709.4 541.3 1707.5 577 1697.9 606.1 C 1693.9 618.2 1684.9 637.8 1680.9 642.8 C 1679.9 644.2 1679.1 645.5 1679.3 645.7 C 1679.5 645.9 1681.7 644.9 1684.1 643.6 C 1686.5 642.2 1694.6 639.3 1702 637.1 C 1709.4 634.9 1722.3 630.7 1730.5 627.7 C 1738.8 624.7 1748.8 621.3 1752.8 620.1 C 1761.8 617.4 1767.2 612.5 1771.8 602.9 C 1775.1 595.9 1787.9 555.2 1798.5 518.2 C 1806.8 489.3 1814.1 467.7 1819 457.5 C 1823.2 448.7 1829.2 442.3 1840.7 434.2 C 1844.2 431.8 1847.2 429.5 1847.5 429 C 1848.1 428 1844.8 428.4 1837.5 430.2 C 1830.9 431.8 1784.6 432.4 1771.3 431 C 1742.7 428.2 1712 420.6 1673 406.7 C 1629 391.1 1615.3 387.7 1596 387.6 C 1584.5 387.6 1582.8 387.9 1574.2 390.8 C 1569 392.6 1561.6 396.1 1557.7 398.6 C 1547.3 405.3 1533.8 419.7 1526.5 431.8 C 1526 432.7 1524.7 434.7 1523.8 436.1 C 1521 440.4 1512.5 457.7 1508.6 467.3 C 1503.2 480.5 1501.3 483 1496.8 483 C 1492.3 483 1492.4 483.5 1494.6 468.3 C 1497.1 450.7 1499.6 442.4 1506.2 429.5 C 1514.1 413.9 1516.8 410.1 1526 400.9 C 1534.8 392.2 1545 386.5 1558.5 382.8 C 1565.8 380.8 1568.8 380.6 1592 380.6 C 1617.5 380.6 1632 381.8 1651 385.5 C 1655.1 386.3 1661.2 387.5 1664.5 388.2 C 1667.8 388.8 1678.4 391 1688 393.2 C 1752.7 407.5 1777.8 410.7 1805 408.1 C 1832.2 405.4 1847.3 400.6 1872.5 386.5 C 1881.1 381.7 1886.5 380.7 1887.4 383.8 C 1889.4 390.2 1896.9 440.3 1899.2 463 C 1900.9 479.3 1900.9 531.8 1899.2 547.5 C 1896.6 572.2 1895.9 589.8 1895.3 638.6 C 1894.7 693.6 1895.5 707.7 1898.9 704.6 C 1899.9 703.6 1902.5 703 1905.1 703 L 1909.5 703 L 1909.5 682.7 C 1909.6 656.4 1912.3 636.1 1919.4 609 C 1929.3 570.9 1946.5 530.1 1969.4 490.1 C 1975.1 480.1 1980.1 471.4 1980.4 470.7 C 1981.6 468.3 1993.7 450.3 1999.4 442.5 C 2011 426.9 2020.9 416.4 2034.9 404.7 C 2040 400.6 2049 395 2055.4 392 C 2074 383.5 2089.7 383.9 2105 393.2 C 2118.8 401.6 2129 414.3 2129 422.8 C 2129 428 2124.4 436.6 2116.3 446.8 C 2110.2 454.5 2109.6 455 2106 455 C 2102.4 455 2101.7 454.5 2097.4 448.7 C 2086.4 434.4 2072.8 422.5 2064.3 420 C 2047 414.8 2021.9 440.4 1991.5 494.1 C 1962.2 546 1948.8 592.7 1946.4 651 C 1945.9 662.2 1946.1 666.2 1947.8 674.3 C 1951.3 691 1957.9 701.8 1967.3 706.1 C 1974.3 709.2 1981.1 708.1 1993.2 702 C 1998.8 699.1 2009.9 692 2012.7 689.6 C 2013.3 689 2015.3 687.4 2017.2 686 C 2022.5 682 2039.2 666.9 2043.3 662.3 C 2045.4 660 2049.7 655.4 2052.8 652.2 C 2081 622.8 2086.7 616 2089.4 609.2 C 2091.7 603.1 2091.5 598.8 2088.5 585.2 L 2087.9 582.9 L 2082.7 585.8 C 2079.8 587.3 2075.8 589.6 2073.7 590.8 C 2071.6 592 2068.4 593 2066.5 593 C 2063.3 593 2063 592.8 2063 589.9 C 2063 582.4 2071.7 572.1 2084 565 C 2099.7 555.9 2112.8 547.9 2114.6 546.2 C 2122.7 538.7 2128.3 535 2131.5 535 C 2135.6 535 2135.4 533.8 2134 550.5 C 2133 561.4 2127.5 602.4 2126.5 606 C 2125.5 609.3 2123 628.4 2121.5 643 C 2118.8 670.9 2117 702 2116.3 732.9 L 2115.7 763.3 L 2118.1 762.6 C 2119.4 762.2 2125.1 761.6 2130.8 761.3 L 2141 760.7 L 2141 764.2 C 2141 767.9 2137.7 771.6 2125.5 781.5 C 2115.1 789.9 2110.3 795.6 2099.4 812.2 C 2086.1 832.3 2082 837 2077.4 837 L 2074 837 L 2074 830.8 C 2074.1 805.9 2078.3 760.4 2085 713 C 2087.3 696.6 2090.7 662.6 2091.5 647.5 L 2092.1 636.5 L 2089.8 639 C 2084.9 644.5 2067.2 666.7 2064.1 671.4 C 2063.3 672.5 2061.2 675.1 2059.5 677 C 2056.5 680.4 2052.7 685.2 2048.4 691.2 C 2040 702.7 2012.7 730 1999.4 740.1 C 1990 747.2 1979 753 1970.8 755 C 1968 755.7 1961.5 756.1 1954.8 755.8 C 1944.8 755.5 1942.9 755.1 1938 752.6 C 1930.6 748.7 1922.7 740.1 1918.3 731.1 L 1914.7 723.7 L 1913.5 726.6 C 1911.3 732 1906.6 736.3 1895 743.8 C 1886.6 749.2 1881.2 753.7 1875.2 760.1 C 1867.3 768.5 1866.6 769 1862.8 769 L 1858.7 769 L 1859.4 761.8 C 1859.8 757.8 1860.5 750.2 1861 745 C 1861.5 739.8 1862.4 720.9 1863 703 C 1864.2 665.1 1865.8 630.1 1866.7 624.8 L 1867.3 621 L 1849.7 621 C 1821.6 621 1807.4 623 1795.3 628.7 C 1789.7 631.3 1786.1 635.3 1781.6 644 C 1770.9 664.5 1759.4 682.7 1748.5 696.5 C 1728.1 722.4 1693.7 757.6 1672.5 774.4 C 1669.2 777 1664.8 780.5 1662.6 782.3 C 1660.5 784 1656.6 786.8 1654 788.5 C 1651.3 790.1 1645.9 793.7 1641.8 796.4 C 1607 819.7 1566.2 836 1530.7 840.9 C 1520 842.4 1492.9 842.2 1485.4 840.5 L 1485.4 840.5 Z M 1815.5 603 C 1824.3 600.8 1836.2 598.3 1842 597.4 C 1856.2 595.2 1862.4 593.4 1865.7 590.6 C 1868.5 588.2 1868.5 587.9 1869.1 573.8 C 1869.5 566 1870.3 555.2 1871 550 C 1872.9 535.1 1871.7 497 1868.7 480.2 C 1867.4 472.9 1866 466.7 1865.7 466.4 C 1864.5 465.2 1856 472.2 1851.6 477.9 C 1846.4 484.6 1841.9 493.4 1836.5 507 C 1831.5 519.5 1819.3 549.4 1817 554.5 C 1815 558.9 1798.7 601.2 1797.6 604.8 C 1796.6 607.7 1796.6 607.7 1815.5 603 L 1815.5 603 Z" style="fill: url(#color-5);">
      <title>coag</title>
    </path>
    <path d="M2294 786.2 c0 -1.6 0.9 -4.7 2 -7 5.1 -10.6 7.1 -27.5 5.1 -43.6 -0.7 -5.3 -3.5 -19 -6.2 -30.4 -6.1 -25.3 -9.6 -43.4 -11 -57 l-1.1 -10.4 -2.8 4.9 c-8.5 14.8 -60 76 -76.4 90.8 -9.9 8.9 -19.7 16 -26.2 19.1 -7.5 3.5 -19.4 3.5 -24.7 -0.1 -5 -3.5 -7.3 -8.4 -9.2 -19.9 -1.8 -11.2 -1.9 -21.7 -0.5 -41.1 0.5 -7.7 1.4 -23.7 2 -35.5 1.7 -33.1 5.2 -65.6 14.1 -128.5 3.7 -26 4.2 -32.5 4.3 -48.5 0.1 -16.2 -0.1 -18.9 -1.7 -21.3 -1 -1.5 -2.7 -2.7 -3.8 -2.7 -1.2 0 -5.8 2 -10.3 4.5 -5.6 3 -9.5 4.5 -12 4.5 -3.4 0 -3.6 -0.2 -3.6 -3.2 0.1 -8.4 17.3 -28.7 34.9 -41.2 3.1 -2.2 5.8 -4.3 6.1 -4.7 0.3 -0.3 4.3 -3.2 9 -6.2 4.7 -3.1 11.4 -7.6 15 -10.1 4.4 -3.1 7.6 -4.6 9.8 -4.6 l3.2 0 0 5.3 c0 5.3 -2.4 19.3 -7.9 45.7 -8.5 41.2 -11.9 69.6 -16.6 136.5 -0.8 11.6 -2 27.5 -2.6 35.5 -1.4 18.1 -0.5 58.8 1.5 68.2 1.8 8 3.5 10.9 8.1 13.4 3 1.6 3.9 1.7 7.2 0.5 2.1 -0.7 6.1 -2.8 9 -4.7 5.4 -3.5 33.3 -30.7 39.3 -38.3 1.9 -2.4 4.9 -6.1 6.7 -8.1 6.4 -7.3 17.8 -24.2 22.5 -33.3 l3.2 -6.2 0.7 -29 c0.5 -17.5 1.6 -36.3 2.8 -47.5 4.2 -37.6 4.9 -63.3 2.5 -91.7 -0.9 -11 0.1 -13 11 -21.2 5.1 -3.8 13.5 -11.5 18.7 -17 8.7 -9.4 9.6 -10.1 13.1 -10.1 l3.8 0 0 8.9 c0 6.5 -0.8 12 -3 20.7 -4.1 16.7 -7.2 42.3 -11.1 91.4 -1.8 22 -1.5 74.8 0.5 101 2 25.4 5.8 60.8 9.1 84.5 1.3 9.4 2.6 19.4 3 22.3 0.7 4.9 0.9 5.3 2.9 4.7 9.6 -3 19.2 -2.7 23.5 0.6 2.3 1.8 2.5 1.8 3.6 0.2 4.2 -6 17.9 -29.3 21.9 -37.3 31.8 -63 50.6 -187.3 38.9 -256.5 -0.9 -5.6 -1.4 -10.8 -1.1 -11.7 0.4 -0.9 2.4 -1.9 5 -2.3 8.4 -1.4 27.4 -9.3 39.3 -16.4 19 -11.4 35.3 -17.1 48.9 -17.1 l7.6 0 0 3.3 c-0.1 3.5 -2.9 8.7 -7.6 13.9 -10.3 11.6 -19.5 23.7 -25.6 33.8 -8.4 14 -19.5 44.6 -26.3 72.7 -2 8.1 -4 16.4 -4.5 18.3 -0.9 3.2 -6.8 32.8 -10.5 52.5 -3 16.2 -9.5 49.1 -10.5 53 -0.5 2.2 -2.3 9.9 -4 17 -3.7 15.5 -11.1 40.1 -15.2 50.4 -1.6 4.1 -2.5 7.8 -2.1 8.2 0.5 0.5 7.8 2 16.3 3.3 50 8 83.2 6.9 115.5 -3.9 8.7 -2.9 27.3 -12 34.5 -16.9 5.2 -3.5 17.1 -15.3 23 -22.7 2.2 -2.8 6.4 -7.7 9.2 -11 4.7 -5.2 5.7 -5.9 9 -5.9 3.7 0 3.8 0.1 3.8 3.5 0 5.1 -5 17.5 -15 37 -13.4 26.1 -18.3 39.8 -19.8 54.7 l-0.7 7.3 -6 0.3 c-6.9 0.4 -33 -2.1 -52.1 -4.9 -44.5 -6.5 -82 -6.5 -129.4 0.1 -33.7 4.7 -44.7 6 -49.7 6 -5.2 0 -5.3 0 -5.3 -3.1 0 -1.6 1.1 -5.1 2.5 -7.6 1.4 -2.5 2.5 -4.7 2.3 -4.8 -0.5 -0.6 -12.4 7.8 -16.5 11.6 -4.3 4.1 -8.8 9.6 -12.5 15.5 -1.5 2.2 -3.2 4.7 -4 5.5 -0.7 0.8 -3.1 3.5 -5.2 6.1 -5.4 6.8 -11.9 10.8 -17.3 10.8 -4.1 0 -4.3 -0.2 -4.3 -2.8z" style="fill: url(#color-5);">
      <title>ul</title>
    </path>
  </g>
  <g fill="#dbd5de" style="">
    <title>Manchot</title>
    <path d="M 982.5 835 C 982.1 833.3 982.1 830.3 982.4 828.2 C 983.1 824.3 985.4 795.2 987 770.5 C 993.5 673.3 993.7 671.3 996.1 645.5 C 998.1 623.4 1000.2 604.5 1002.1 592 C 1005 572.5 1011.3 541.2 1014.1 532.5 C 1021.9 507.8 1027.9 494.1 1035.6 482.4 C 1039.6 476.4 1050.6 466 1053.1 466 C 1053.9 466 1055.2 465.4 1055.9 464.8 C 1056.7 463.9 1060.2 463.6 1067.1 463.7 C 1078.9 463.9 1088.3 466.6 1099.9 472.9 C 1104 475.2 1107.5 477 1107.7 477 C 1108 477 1109.4 477.9 1110.9 478.9 C 1113.7 480.9 1127.4 488 1128.4 488 C 1128.7 488 1129 487.5 1129 486.9 C 1129 485.2 1126.1 482.9 1115 475.3 C 1101.3 466.1 1070.9 455 1059.3 455 C 1057.3 455 1054.2 454.5 1052.4 453.8 C 1047.6 452.1 1045.7 445.2 1046.2 431.4 C 1046.5 421.3 1047.3 419.1 1049.5 414.9 C 1052.5 409.2 1057.8 404.4 1064.8 401.2 C 1069.4 399.1 1071.2 398.8 1076.7 399.3 C 1084.9 399.9 1087 401.9 1094.5 415.4 C 1100.7 426.8 1108.9 436.6 1114.6 439.5 C 1116.8 440.6 1118.7 441.8 1119 442.1 C 1121.7 445.5 1148.8 452.7 1159.9 453 C 1160.9 453 1160.2 479 1159.1 479.3 C 1156.9 479.8 1157.6 526.9 1162.4 538.3 C 1172.2 561.1 1180.7 588.9 1184.1 609 C 1187.5 629.1 1188.8 650.7 1187.4 661.4 C 1186.8 665.8 1186.6 666 1183.5 666 C 1180.5 666 1180.1 665.5 1174.7 654.8 C 1164.5 634.7 1157.4 623.4 1145.5 608.5 C 1136.9 597.8 1120.5 581.4 1110 573.1 L 1102.5 567.1 L 1101.8 581.8 C 1098.3 661.2 1082.5 714.3 1045.2 772.5 C 1042.7 776.4 1040.4 779.7 1040 780 C 1039.7 780.3 1038.3 782.1 1037 784 C 1035.7 785.9 1032.9 789.6 1030.7 792.3 C 1028.6 794.9 1023 802.1 1023 802.1 C 1023 802.1 1017.1 808.9 1011.6 814.8 C 1006.3 820.3 1000.3 826.7 998.4 828.4 C 996 830.5 988 838 986.2 838 C 983.6 838 983.1 837.5 982.5 835 Z" style="fill: url(#color-4);">
      <title>dos</title>
    </path>
    <path d="M 1136 360 C 1133 358.9 1126.194 356.399 1127 352.6 C 1128.35 346.24 1143.4 347.7 1145.8 347.4 C 1148.1 347.1 1151.1 347.1 1152.5 347.4 C 1154.8 348 1155 348.5 1155 354.4 C 1155 360.2 1154.8 360.8 1152.8 361.4 C 1148.5 362.5 1141.5 361.9 1136 360 Z" style="fill: url(#color-4);">
      <title>œil</title>
    </path>
    <path style="fill: rgb(255, 255, 255);" d="M 1116.926 599.176 L 1149.495 624.503 C 1137.623 772.77 1118.639 827.998 1118.639 827.998 C 1004.818 818.778 988.881 839.895 988.881 839.895 C 1086.076 743.042 1116.926 599.176 1116.926 599.176 Z">
      <title>ventre</title>
    </path>
    <path style="fill: rgb(255, 255, 255);" d="M 1154.982 374.384 C 1161.576 334.459 1275.862 363.184 1275.862 363.184 L 1185.902 388.183 C 1185.902 388.183 1153.143 385.52 1154.982 374.384 Z">
      <title>bec</title>
    </path>
  </g>
  <g fill="#020202" style="">
    <title>Contours</title>
    <path d="M 975.3 847.8 C 978.5 840.2 981.5 823 982.9 804 C 984.6 782.2 985 774.5 986 730 C 987 682.8 987.8 656.2 988.5 646 C 988.7 642.4 989.2 634.6 989.5 628.5 C 991.2 596.1 995.1 562.7 1000.1 537.5 C 1004.9 513.3 1010.1 497.3 1019.4 477.3 C 1027.3 460.3 1035.8 439.1 1046 410.5 C 1052.7 391.9 1057.3 382.5 1065.5 371.5 C 1078.8 353.5 1096.7 340.3 1116 334.2 C 1129 330.1 1133.3 329.5 1148.5 329.6 C 1166.7 329.7 1173.4 331.1 1196.5 340 C 1224.5 350.7 1241.9 354.1 1258.2 352.1 C 1268.7 350.8 1276.1 351.8 1281.8 355.2 C 1284.8 357 1293 367.2 1293 369.2 C 1293 369.6 1289.7 370 1285.8 370 C 1218 370.1 1176.7 400.3 1164 459.1 C 1160.9 473.6 1160.1 484.7 1160.5 506.6 C 1160.9 525.7 1161 527 1163.5 532.6 C 1168.5 543.9 1178.9 573.6 1183 588.5 C 1189 610.5 1192 629.3 1192 645.5 C 1192 666.2 1189.1 676 1182.9 676 C 1179.6 676 1177.8 673.7 1169.5 659.4 C 1165.2 652 1156 641 1154 641 C 1153.7 641 1152.8 649.9 1152.1 660.7 C 1149 711 1140.5 757 1124.8 809.3 C 1122.6 816.8 1120.5 822.9 1120.3 822.7 C 1120.2 822.5 1121.8 814 1124 803.9 C 1131.4 769.4 1138.6 721.5 1141 691.1 C 1142.4 674 1142.4 639.6 1141.1 630.7 L 1140.1 624 L 1130.3 614.6 C 1122.6 607.2 1120.4 605.5 1119.9 606.8 C 1119.5 607.8 1118.5 614.4 1117.5 621.5 C 1114.3 645.9 1103.7 682.6 1093.1 706 C 1072.6 751.3 1039.8 795 999.5 830.9 L 992.5 837.1 L 999.5 833.6 C 1008.9 828.9 1022.4 824.5 1034.5 822.4 C 1042.2 821 1049.4 820.6 1066 820.6 C 1086.9 820.7 1097.7 821.6 1134.5 826.4 C 1145.9 827.9 1166.8 830 1170.8 830 C 1172 830 1173 830.6 1173 831.4 C 1173 832.9 1161.877 833.246 1160.7 833.3 C 1137.796 834.359 1087 830.6 1078 829.5 C 1059.3 827.1 1036 827.3 1022.8 829.9 C 1006.9 833.1 993.3 838.7 980.8 847.1 C 977.7 849.3 974.9 851 974.5 851 C 974.2 851 974.6 849.5 975.3 847.8 Z M 1003.9 817 C 1021 798.7 1021.2 798.5 1032.3 783.6 C 1069.5 733.4 1090.5 678.1 1096.5 614 C 1097.3 605.5 1098.4 590.3 1098.9 580.2 C 1099.4 570.1 1100.1 561.6 1100.3 561.3 C 1101.1 560.5 1119.7 575.7 1129.9 585.5 C 1149.6 604.5 1168.6 631.6 1180 657.3 C 1184.2 666.5 1184.7 665.7 1184.9 650.9 C 1185.2 618.6 1175.9 579.2 1158.2 537.5 C 1151.5 521.9 1151.3 495.4 1157.6 459.9 L 1158.2 456.3 L 1151 455.2 C 1147 454.6 1125.6 450 1116.2 444.9 C 1104.8 438.7 1099.4 432.7 1090.6 416.4 C 1084.9 405.6 1081.1 402 1075.4 402 C 1067.8 402 1056 410.2 1051.7 418.5 C 1048.7 424.3 1048.1 438.1 1050.6 445 C 1052.7 450.7 1053.1 450.9 1068 453.1 C 1084.7 455.4 1110 466.3 1124.5 477.2 C 1131.9 482.8 1134.3 486.7 1132 489.4 C 1129.2 492.8 1125.4 491.5 1104.9 480 C 1087.6 470.4 1077.8 466.8 1067.7 466.7 C 1058.8 466.6 1053.6 468.8 1046.4 475.8 C 1037.4 484.5 1028.7 500.3 1021.5 520.9 C 1007.8 560.7 1000.3 613.8 993.5 719 C 990.4 766 987.9 801.9 986.5 818 C 985.7 827.1 985 834.9 985 835.4 C 985 836.8 988.6 833.2 1003.9 817 Z M 1202.1 380.7 C 1204.5 379.9 1214.2 376.7 1223.6 373.6 C 1240.1 368.3 1250.6 366 1267 364.2 L 1274.5 363.4 L 1261.5 362.7 C 1244.7 361.7 1229.6 364.1 1212.5 370.4 C 1196.6 376.3 1176.4 378.6 1163.2 376.1 C 1157.5 375 1157 376.4 1162.3 378.5 C 1173.6 383.1 1191.6 384 1202.1 380.7 Z M 1149.8 358.4 C 1151.5 357.9 1152 357 1152 354.5 C 1152 350.4 1149.8 349.4 1144 351 C 1141.7 351.6 1137.6 352.1 1134.8 352.2 C 1130 352.2 1129.9 352.3 1132 353.7 C 1135 355.8 1143 358.9 1145.5 358.9 C 1146.6 359 1148.5 358.7 1149.8 358.4 Z" style="fill: url(#color-3);">
      <title>Manchot</title>
    </path>
    <path d="M 1492.7 843.9 C 1483.3 842.6 1469.5 837.2 1463.4 832.5 C 1453.3 824.6 1448.1 813.9 1447.2 799.4 C 1446.5 785.3 1449.2 773.1 1456.7 757.2 C 1463.7 742.5 1474.5 729 1479.4 729 C 1482.5 729 1485 731.5 1485 734.5 C 1485 736.9 1481.9 745.8 1474.5 764.9 C 1472.5 770.1 1470 778.4 1468.8 783.3 C 1467 791.4 1466.9 793.2 1467.9 799 C 1469.6 807.9 1471.9 812.7 1477.1 817.8 C 1491.1 831.5 1517.1 833.8 1553 824.5 C 1576.9 818.4 1604.2 804.8 1634.5 784.1 C 1655.2 770 1660.3 765.7 1680.5 745.5 C 1696.6 729.4 1699.6 726.1 1707 716.5 C 1710 712.7 1712.9 709 1713.4 708.4 C 1714 707.8 1715.2 706.2 1716 705 C 1716.8 703.7 1719 700.7 1720.7 698.3 C 1725 692.7 1735 677.1 1735 676.2 C 1735 675.8 1736.4 673.5 1738 671.1 C 1741.5 665.9 1752.5 644.2 1751.9 643.6 C 1751.5 643.3 1718.8 652.7 1697.5 659.3 C 1693.1 660.7 1689.2 660.9 1689.2 660.9 C 1689.2 660.9 1677.805 662.234 1674.8 660.6 C 1672.009 659.082 1672 659.2 1666.1 666.3 C 1658.3 675.9 1638.8 694.6 1629.8 701.3 C 1617.3 710.5 1605.3 718 1603.1 718 C 1601.9 718 1600.1 717.1 1598.9 715.9 C 1595 712 1597.5 707.8 1610.2 696.4 C 1628.1 680.4 1631.9 675.9 1641.4 659.4 C 1657.2 632 1664.9 597.6 1662.1 566.7 C 1660.1 543.7 1654.8 521.8 1645.6 498 C 1641.1 486.5 1634.8 474.5 1624.7 458.5 C 1620.5 451.9 1615.4 443.4 1613.4 439.5 C 1611.4 435.7 1609.6 432.4 1609.5 432.2 C 1609.3 432 1604.6 435.3 1598.9 439.5 C 1590.6 445.7 1588.1 447.1 1585.6 446.8 C 1582 446.4 1580.6 448.3 1571.1 466 C 1544.9 514.7 1536.8 541.6 1533.9 587.9 C 1532.7 608.8 1533.8 637.1 1537 664.5 C 1539 681.5 1539.1 681.8 1542 695 C 1547 717.1 1555.6 732.6 1565.5 737.1 C 1570.9 739.6 1574.1 739.5 1583.4 736.4 C 1594.2 732.8 1609.5 722.1 1625.5 707.1 C 1631.4 701.5 1646 690.4 1649.4 688.9 C 1655.7 686 1660.1 691.4 1656.4 697.7 C 1650.4 707.9 1623.8 734.7 1607.5 747.1 C 1592.7 758.3 1573.5 768.6 1562 771.6 C 1541.8 776.8 1524.8 766.6 1511.8 741.5 C 1501.9 722.2 1496.2 702.6 1494 680 C 1493.3 673.7 1492.5 666.5 1492.2 664.2 L 1491.5 659.8 L 1485.6 669 C 1480 677.7 1466.6 696.1 1461.1 702.5 C 1454.2 710.5 1434.6 729.2 1428.5 733.5 C 1424.6 736.2 1420.4 739.3 1419 740.4 C 1414.7 743.9 1394 754.7 1383.5 759 C 1368.6 765.1 1356.3 767.3 1341 766.7 C 1327.5 766.2 1320.3 764.3 1310.4 758.5 C 1293.5 748.6 1280 726.8 1272.9 698 C 1270.7 689.3 1270.5 686.4 1270.5 663 C 1270.5 635.7 1271.5 626.3 1276.6 603.2 C 1291.6 535.6 1338 457.3 1383.2 422.9 C 1392.6 415.8 1410.8 405.9 1419 403.6 C 1437 398.4 1453.4 400.3 1467.1 409.1 C 1478.5 416.5 1493 431.9 1493 436.6 C 1493 438.1 1490.2 442.3 1485.4 448 C 1478.1 456.7 1477.6 457.1 1474.1 456.8 C 1470.7 456.5 1470.1 455.8 1462.5 444.5 C 1454 431.9 1449.9 428.1 1442.3 425.9 C 1428.4 422 1405.4 435.5 1385 459.5 C 1353.5 496.7 1326.4 556.9 1319.5 605.3 C 1315.6 633.2 1319.7 678.8 1327.9 697 C 1331 703.8 1337 711.1 1342.5 714.7 C 1350.3 719.9 1367.7 722.7 1378.8 720.6 C 1398 716.9 1412 711.8 1423.3 704.3 C 1431.6 698.7 1446 684.7 1454.5 674 C 1457.8 669.9 1460.7 666.3 1461 666 C 1461.4 665.7 1464 662.6 1466.9 659 C 1473.1 651.4 1489.5 635 1490.9 635 C 1491.4 635 1492.1 631.1 1492.5 626.3 C 1495.7 583.9 1504 547.8 1519.5 509 C 1537.8 463.3 1572.5 411.4 1591.2 402.1 C 1598.6 398.4 1606.4 397.9 1610.1 400.9 C 1612.2 402.6 1612.6 402.6 1615.9 401.2 C 1618 400.3 1622.5 399.6 1626.5 399.6 C 1639.3 399.5 1650.1 406.4 1662 422.1 C 1674.3 438.5 1687.7 462.1 1695 480.5 C 1699.8 492.5 1702.7 502.1 1705.7 516 C 1708.2 527.4 1708.4 530.3 1708.4 550 C 1708.4 569.7 1708.2 572.6 1705.7 584 C 1702 600.6 1697 615 1689.9 629.3 C 1686.7 635.8 1684 641.3 1684 641.5 C 1684 641.7 1686.4 640.8 1689.3 639.6 C 1692.1 638.3 1696 636.9 1697.9 636.5 C 1705 635 1755.4 617.9 1760.3 615.4 C 1763.4 613.7 1768.3 607.4 1770.9 601.5 C 1773.1 596.5 1788.3 548 1794.5 526 C 1804.1 492 1812.9 466.1 1818.4 455.1 C 1821.6 448.9 1827.4 442.5 1835.4 436.6 C 1839 433.8 1841.8 431.5 1841.7 431.4 C 1841.6 431.3 1839.5 431.6 1837 432.2 C 1829.7 433.7 1785.5 434.4 1772.8 433.1 C 1741.9 429.9 1711.8 422.4 1667.8 406.6 C 1632.5 394 1620.3 391.1 1600.4 390.3 C 1583 389.6 1574.1 391.3 1563.1 397.1 C 1553.8 402.1 1547.8 406.8 1541.5 414.2 C 1538.8 417.5 1535.8 420.9 1534.9 421.8 C 1530.1 427.1 1518.3 447.9 1513.4 459.7 C 1507.6 473.9 1502.2 483.6 1499.5 484.8 C 1496.4 486.2 1492.4 484.9 1491.5 482.1 C 1491.2 480.9 1491.1 478.3 1491.5 476.3 C 1495.4 450.9 1497 444.8 1503.7 431.1 C 1515 408 1526.6 395.2 1543.5 387 C 1554.3 381.8 1561.7 379.8 1578 378 C 1586.8 377 1591.7 377 1608 378.4 C 1640.4 381.2 1650.1 382.8 1694.5 392.7 C 1747.9 404.6 1771.4 407.8 1797.1 406.6 C 1824.6 405.3 1845.6 399.7 1867.8 387.5 C 1888.6 376.1 1888.1 375.8 1892.6 402.1 C 1894.4 412.8 1896.2 422.9 1896.5 424.5 C 1897.7 431.3 1901 459.3 1902 470.5 C 1903.4 487.8 1903.2 525.9 1901.6 545 C 1900.8 554.1 1899.6 570.5 1898.9 581.5 C 1897.3 605.9 1897 699.5 1898.5 700.8 C 1899.1 701.3 1901.2 701.5 1903.3 701.3 L 1907 700.8 L 1907 684.6 C 1907 634.6 1922.2 579.5 1953.2 517.5 C 1958.2 507.7 1967.9 489.6 1972.5 481.8 C 1973.1 480.9 1975 477.5 1976.9 474.3 C 1989.7 452.2 2011.7 423.4 2023.9 412.5 C 2025.8 410.9 2027.8 409 2028.4 408.4 C 2032 404.9 2045.5 395.5 2051 392.6 C 2073.5 380.9 2089.4 381 2107.5 393.1 C 2116.2 398.9 2125.8 409 2129 415.5 C 2131.1 419.8 2131.2 420.7 2130.1 425.3 C 2128.9 430.4 2122.5 441.7 2117.5 447.5 C 2110.2 455.9 2108.8 457 2105.5 457 C 2102.6 457 2101.6 456.1 2096.2 449.2 C 2088.6 439.4 2077 428.2 2070.5 424.4 C 2063.7 420.5 2055.8 420.4 2048.3 424.3 C 2042 427.5 2031.8 436.9 2024.8 445.9 C 2021.9 449.5 2019.3 452.7 2019 453 C 2017.7 454 2004.9 474 1997 487 C 1973.4 526.3 1957 571.7 1951.6 613 C 1950.8 619.3 1949.6 631.9 1948.9 641 C 1946.6 673.4 1951.9 694.6 1964.1 702.7 C 1967.8 705.1 1969.3 705.5 1975.6 705.4 C 1982 705.4 1983.7 704.9 1992.1 700.8 C 2011.5 691.4 2030.5 674.8 2065.9 636.6 C 2086.2 614.6 2089 610.3 2088.9 601 C 2088.9 595.3 2087.7 587.3 2086.7 586.4 C 2086.4 586 2081.8 588.1 2076.4 591 C 2066 596.6 2062.8 596.9 2060.9 592.6 C 2060 590.7 2060.4 589.2 2062.9 584.1 C 2067.6 574.9 2074.7 568.7 2091.6 559.1 C 2099.8 554.5 2106.9 550.3 2107.5 549.8 C 2118.2 541 2127.8 533.8 2129.6 533.4 C 2133.1 532.5 2135.9 533.9 2136.7 536.8 C 2137.7 540.7 2135.7 558.6 2130.6 591.6 C 2128.1 607.5 2125.6 625.2 2125 631 C 2124.4 636.8 2123.5 644.9 2123 649 C 2121.1 662.8 2119 701.2 2118.3 731.4 C 2117.7 760.6 2117.7 761.3 2119.6 760.5 C 2120.6 760.1 2125.7 759.5 2130.9 759.2 C 2139.2 758.8 2140.5 759 2141.7 760.6 C 2142.4 761.6 2143 763.4 2143 764.6 C 2143 767.1 2136.3 775 2130.7 779.1 C 2122.6 785 2113.6 793.7 2109.7 799.5 C 2107.5 802.8 2084.8 835.9 2081.5 838.2 C 2079.7 839.5 2075.2 839.1 2073.6 837.4 C 2072.3 836.2 2072 833.6 2072 825.2 C 2072 812.2 2073.5 790.6 2075.5 774.5 C 2088.6 667.2 2091.2 641.9 2089.3 642.1 C 2088.5 642.1 2087.3 643.6 2075 659.5 C 2072 663.3 2068.7 667.4 2067.8 668.5 C 2066.8 669.6 2062.2 675.5 2057.5 681.5 C 2030.9 715.7 2003.8 741.5 1984 751.5 C 1976.2 755.4 1971.16 756.524 1964.234 757.447 C 1958.253 758.244 1951.3 758.4 1945.7 757 C 1935 754.1 1923.6 744.7 1918.4 734.3 C 1916.8 731.3 1915.3 728.7 1914.9 728.4 C 1914.5 728.2 1913.2 729.6 1912 731.5 C 1909.6 735.3 1903.9 739.8 1892.5 747 C 1888.6 749.4 1881 755.9 1875.2 761.7 C 1864.5 772.5 1861.9 773.8 1858.4 770.3 C 1857 768.9 1856.8 767.4 1857.3 761.5 C 1860.1 726.9 1862 692.3 1862 676.5 C 1862 664.2 1863.5 636.3 1864.6 627.8 L 1865.2 623 L 1847.3 623 C 1827.1 623 1815.2 624.1 1804.3 627.1 C 1790.7 630.7 1789.8 631.5 1780 649.9 C 1776.1 657.2 1772.1 664.4 1771.1 665.9 C 1770.1 667.3 1767.3 671.7 1764.9 675.5 C 1762.5 679.4 1760.3 682.7 1760 683 C 1759.7 683.3 1757.4 686.4 1754.9 690 C 1752.4 693.6 1749.5 697.6 1748.5 698.8 C 1747.4 700.1 1745.8 702 1745 703 C 1726.7 725.4 1692.2 760.2 1673 775.6 C 1648.8 794.9 1623.3 810.7 1596 823.3 C 1578.8 831.2 1553.6 839 1533.5 842.6 C 1523.3 844.5 1501.5 845.2 1492.7 843.9 Z M 1530.5 837.4 C 1536 836.5 1541.2 835.7 1542 835.6 C 1545.8 834.9 1561.9 830.3 1568.8 827.9 C 1571.6 826.9 1574.3 826 1574.8 825.9 C 1575.2 825.8 1576.6 825.3 1578 824.8 C 1599.8 816.5 1619.3 806.4 1638.8 793.4 C 1642.9 790.7 1648.3 787.1 1651 785.5 C 1653.6 783.8 1657.5 781 1659.6 779.3 C 1661.8 777.5 1666.2 774 1669.5 771.4 C 1690.6 754.7 1720 724.7 1744.5 694.9 C 1754.7 682.4 1767.6 662.1 1778.6 641 C 1783.1 632.3 1786.7 628.3 1792.3 625.7 C 1804.8 619.8 1818.5 618 1850.1 618 L 1871 618 L 1870.5 620.3 C 1869.3 625.8 1867.9 649.2 1867 681 C 1866 717.5 1864.4 746.9 1863 758.5 C 1862.5 762.3 1862.4 765.7 1862.7 766 C 1863 766.3 1867.1 762.4 1871.9 757.4 C 1878.1 750.8 1883.7 746.2 1892 740.8 C 1898.4 736.7 1904.9 731.8 1906.4 729.9 C 1912.1 723.2 1913.4 716.1 1910.3 709.5 C 1909 706.8 1908 706 1906 706 C 1902.9 706 1899.4 709.3 1898.5 713.3 C 1897.4 717.4 1896.4 717.4 1895.2 713.2 C 1892.2 702.7 1891.8 690.9 1892.3 638.4 C 1892.8 587.1 1893.6 569.6 1896.2 544.5 C 1897.9 529 1897.9 482.1 1896.2 466 C 1894.7 451 1892.5 433.8 1890.5 421.5 C 1889.7 416.6 1888.8 410.9 1888.6 409 C 1888.1 405 1885.2 389.4 1884.4 386.7 C 1883.8 384.8 1884.3 384.6 1862.5 396.7 C 1851.6 402.7 1832.234 407.101 1816.5 409.5 C 1800.675 411.913 1780.5 412.3 1768.5 411 C 1762.5 410.4 1755.5 409.6 1753 409.4 C 1746.3 408.7 1732.2 406.2 1716 402.8 C 1696.8 398.8 1688.9 396.9 1684.5 395.9 C 1672.7 393.4 1657.7 390.4 1647 388.4 C 1641.8 387.4 1636.387 386.003 1631 385.3 C 1623.214 384.285 1617.4 384.5 1607.5 383.7 C 1569.9 380.6 1546.4 386.6 1529 403.9 C 1524.8 408.1 1520 413.5 1518.3 416 C 1513 423.9 1503.1 444.3 1501.4 451 C 1499.3 459.1 1496.1 480 1496.9 480 C 1498.1 480 1502.1 472.8 1505.6 464.3 C 1509.9 453.8 1518.2 436.9 1521 433 C 1522.1 431.4 1526.2 425 1528.2 421.9 C 1533.6 413.7 1546.5 400.9 1554.7 395.6 C 1565.2 388.9 1577.3 385.1 1590.8 384.4 C 1603.5 383.8 1613.1 384.9 1630 389 C 1642.8 392.2 1675.7 403.5 1680.3 405.2 C 1710.7 416.4 1747.3 425.3 1774.3 428 C 1791.7 429.8 1826.7 428.8 1839.5 426.2 C 1845 425 1851.9 423.4 1854.8 422.5 C 1857.8 421.6 1860.4 421.1 1860.7 421.4 C 1861.5 422.2 1850.5 432.5 1843.7 437.2 C 1830.1 446.8 1824.5 453.4 1819.6 465.6 C 1818.3 468.8 1816.9 472.4 1816.5 473.5 C 1816 474.6 1815.6 475.7 1815.5 476 C 1815.5 476.3 1813.8 481.5 1811.8 487.5 C 1809.8 493.6 1806.1 505.7 1803.5 514.5 C 1801 523.3 1798.7 531.2 1798.4 532 C 1798.1 532.8 1797.9 533.6 1797.9 533.7 C 1797.5 537.8 1777.8 599.4 1774.9 605.4 C 1770 615.9 1763.4 621.8 1755 623.4 C 1753.6 623.6 1744.4 626.7 1734.5 630.3 C 1724.6 633.8 1710.9 638.4 1704.1 640.4 C 1689.6 644.7 1684.8 647 1680.2 651.8 C 1677.1 654.9 1676.9 655.4 1678.5 656.3 C 1681.1 657.7 1689.4 656.4 1699.5 653 C 1704.5 651.3 1718.8 647 1731.5 643.4 C 1744.1 639.8 1755.7 636.2 1757.2 635.4 C 1761.1 633.4 1762.3 633.6 1761.4 636.3 C 1760.4 639.5 1748.7 663.3 1744.4 671 C 1742.4 674.6 1740.2 678.4 1739.6 679.5 C 1738.2 682 1732.7 690.3 1732 691 C 1731.7 691.3 1730.6 693.1 1729.6 695 C 1728.6 696.9 1726.9 699.4 1725.9 700.5 C 1725 701.6 1722.4 705 1720.3 708.1 C 1714.6 716.6 1706.385 725.931 1698.9 734.4 C 1669.611 767.542 1639.151 787.754 1605.2 808.6 C 1593.723 815.647 1572.2 824.7 1568.5 825.5 C 1568 825.6 1566.8 826 1566 826.3 C 1561.6 828.2 1545.4 832.3 1537.5 833.5 C 1532.6 834.3 1522.2 835 1514.5 835 C 1502.6 835 1499.4 834.6 1492.8 832.6 C 1474.1 826.9 1464 815.1 1462.4 797.2 C 1461.6 788.4 1463.6 778.7 1469.6 762.8 C 1477.8 741.1 1480.1 734.7 1479.6 734.3 C 1479 733.7 1470.6 743.9 1466.8 750 C 1458.4 763.3 1453.3 778.2 1452.3 792 C 1450.7 816 1463.4 832.1 1488.4 837.5 C 1496.9 839.4 1518.5 839.3 1530.5 837.4 Z M 2095.7 810.2 C 2108 791.6 2111.8 787.2 2125 776.3 C 2129.7 772.4 2134.6 768.1 2135.9 766.6 L 2138.3 764 L 2133.4 764 C 2129.1 764 2122.5 765.3 2115.1 767.6 L 2112.7 768.3 L 2113.4 736.9 C 2114.1 700.2 2113.9 706.6 2115.1 685.5 C 2117.2 649.1 2119.3 629 2124 599.5 C 2128.8 569.4 2132.4 539.5 2131.5 538.2 C 2131.2 537.9 2121.3 545.8 2117.6 549.2 C 2115.8 550.9 2103.1 558.6 2087.3 567.8 C 2083.4 570.1 2076.057 575.108 2074.8 576.4 C 2072.062 579.213 2069.5 583.4 2069.5 583.4 L 2067 587.8 C 2067 587.8 2065.808 590.543 2067.7 589.8 C 2072.788 587.8 2089.2 577.8 2090.2 578.8 C 2090.6 579.2 2091.6 582.8 2092.5 586.8 C 2094.4 596.2 2093.963 603.332 2092.5 611.4 C 2092.246 612.801 2091.866 614.312 2091 615.4 C 2079.973 629.26 2080.7 629.2 2055.8 655.2 C 2052.7 658.4 2048.4 663 2046.3 665.3 C 2042.2 669.9 2025.5 685 2020.2 689 C 2018.3 690.4 2016.3 692 2015.7 692.6 C 2012.9 695 2001.8 702.1 1996.2 705 C 1987.8 709.2 1981.5 711 1974.5 711 C 1959.4 710.9 1949.5 699.7 1944.8 677.3 C 1943 668.7 1942.9 665.4 1943.4 650 C 1944.3 626.8 1944.8 621.7 1948.1 601.5 C 1956.1 552.3 1976.9 504.5 2013.5 451.3 C 2025.1 434.6 2041.5 419.8 2051.5 417.1 C 2056.7 415.7 2063.8 415.7 2068.1 417.1 C 2076.2 419.9 2090 432.1 2100.4 445.7 C 2103 449.2 2105.5 452 2106 452 C 2107.5 452 2119.9 435.6 2123.1 429.3 L 2126.3 423 L 2124 418 C 2117.5 404.2 2094.4 389 2080 389 C 2069.5 389 2050.2 397.6 2037.9 407.7 C 2023.9 419.4 2014 429.9 2002.4 445.5 C 1996.7 453.3 1984.6 471.3 1983.4 473.7 C 1983.1 474.4 1978.1 483.1 1972.4 493.1 C 1954.8 523.9 1941.4 553.1 1930.9 584 C 1925.1 600.7 1917.7 628.1 1916.5 637 C 1912.1 669.4 1911.2 685.3 1912.9 698.5 C 1916.3 724.3 1926.1 741.9 1941.2 749.6 C 1947.5 752.9 1960 754 1967.7 752.1 C 1981.8 748.5 1997.7 737.8 2017.1 718.8 C 2028.5 707.6 2041.8 693.3 2044.8 688.8 C 2045.7 687.5 2047.5 685.1 2048.9 683.3 C 2050.3 681.6 2053.4 677.8 2055.8 674.8 C 2058.1 671.9 2062.4 666.6 2065.3 663 C 2068.2 659.4 2072.5 653.8 2075 650.5 C 2077.4 647.2 2079.6 644.3 2080 644 C 2080.3 643.7 2083.4 640 2086.8 635.8 C 2090.3 631.5 2093.6 627.8 2094.2 627.4 C 2095.3 626.7 2094.9 646.7 2093.5 663.5 C 2093.2 667.4 2092.9 671.2 2092.9 672 C 2092.7 675.4 2088.9 710.6 2088.5 712 C 2087.2 716.4 2079.1 787.7 2078.5 800 C 2078.3 804.7 2077.8 814.4 2077.5 821.5 L 2076.8 834.5 L 2080.5 831 C 2082.5 829.1 2089.3 819.7 2095.7 810.2 Z M 1568 763.9 C 1572.1 762.3 1578.414 759.141 1582.2 757.2 C 1616.166 739.789 1652 698.1 1652 694 C 1652 692.4 1631.4 708.6 1623.1 716.8 C 1620.3 719.5 1608.4 728.7 1602.5 732.7 C 1587.8 742.5 1574.5 746.1 1564.9 742.8 C 1555.9 739.7 1546.3 727.1 1540.9 711.3 C 1529.8 679.1 1525.2 604 1531.5 559 C 1536.2 525.7 1544.8 502.9 1570 456.5 C 1575.7 446.2 1587.1 430 1594.3 422.3 C 1600.8 415.2 1607 406.7 1607 404.7 C 1607 403 1596.9 404.9 1592.6 407.4 C 1582.9 413.1 1564.6 436.1 1547.6 464 C 1529.6 493.5 1512.7 537.7 1504.4 576.5 C 1496.3 614.5 1494.9 656.5 1500.6 691 C 1505.5 720.8 1521.2 753.1 1535.1 762 C 1545.6 768.8 1554.3 769.3 1568 763.9 Z M 1359.7 760.5 C 1388.1 755.1 1423.3 734.6 1446.5 710 C 1450.3 705.9 1454.5 701.6 1455.6 700.4 C 1456.8 699.2 1458.8 696.7 1460.1 694.8 C 1461.4 693 1462.7 691.3 1463 691 C 1464.5 689.8 1478.2 670.6 1482.7 663.4 C 1489.7 652.2 1496.2 640 1495.8 638.9 C 1495.4 637.7 1483.8 647.9 1478.1 654.5 C 1475.8 657.3 1468.3 666 1461.6 674 C 1446.9 691.3 1442.4 696.1 1434.5 702.7 C 1427.3 708.7 1412.4 717.4 1407.6 718.5 C 1407 718.6 1405.2 719.2 1403.5 719.9 C 1391.7 724.7 1371.2 727.6 1360.2 726 C 1346.1 724 1340.8 721.5 1332.9 713.6 C 1323.1 703.7 1319.5 694.1 1315.3 667.1 C 1311.7 643.8 1311.5 618.8 1314.8 600.5 C 1319.8 573.4 1326.9 550.4 1337.1 528.2 C 1339.2 523.7 1340.9 519.7 1340.9 519.5 C 1341 518.4 1352.3 497.5 1356.7 490.2 C 1361.6 482.1 1372.5 466 1375.6 462.3 C 1376.7 461.2 1379 458.2 1380.9 455.8 C 1393.4 440.1 1409.199 427.552 1427.5 421.4 C 1442.688 416.295 1452.541 423.551 1458 429.4 C 1464.419 436.277 1474 452 1474.9 452 C 1475.3 452 1477.2 449.9 1479 447.3 C 1480.8 444.6 1483.4 441.3 1484.8 439.8 C 1487.1 437.3 1487.2 436.8 1486 434.4 C 1483.2 429.2 1466.3 414.3 1459.8 411.2 C 1443.1 403.4 1427.4 404.4 1406 414.9 C 1401.9 416.9 1398.3 418.7 1398 419 C 1397.7 419.3 1395.2 421.1 1392.4 423 C 1383.8 428.9 1372 439.1 1363.5 448 C 1351.6 460.5 1334.9 483.3 1323.9 502 C 1321.5 506.1 1318.7 510.9 1317.8 512.5 C 1316.8 514.2 1315.2 517.1 1314.2 519 C 1313.3 520.9 1309 529.3 1306.8 534 C 1291.6 566 1281.5 598.6 1277.4 628.4 C 1274.8 648 1274.2 672.5 1276 685.5 C 1278 699.5 1283.6 716.7 1289.8 728.2 C 1295.6 738.9 1307.8 751.3 1317.3 756.1 C 1328 761.6 1344.7 763.3 1359.7 760.5 Z M 1610.8 707.8 C 1625.8 698.3 1636 690 1649.5 676.3 C 1659.5 666.1 1665.374 659.293 1671.7 649.6 C 1681.167 635.094 1691 615.1 1694.9 603.1 C 1699.3 590 1702.5 573.3 1703.5 558.5 C 1704.7 541.2 1701.2 514.7 1695.5 498 C 1694.2 494.2 1691.3 485.9 1690.2 482.8 C 1687 474.3 1676.6 454 1670.4 444.1 C 1656.6 422.4 1647.9 412.5 1638.3 407.8 C 1632.7 405 1631.3 404.8 1625.3 405.2 C 1614.3 406 1605.6 411.9 1596.3 424.8 C 1590.6 432.7 1585.6 441 1586.6 441 C 1587.8 441 1597.4 434.6 1599.5 432.4 C 1602.2 429.7 1610.9 423.6 1611.4 424.1 C 1611.6 424.3 1614 428.8 1616.7 434 C 1619.4 439.2 1625.8 450.1 1630.8 458.2 C 1635.8 466.2 1641.6 476.4 1643.6 480.7 C 1645.6 485 1647.6 489.2 1648.1 490.2 C 1650.5 495.1 1656.2 511.1 1658.9 520.4 C 1673.5 571.2 1670.1 617 1648.9 656.8 C 1638.8 675.9 1631.2 685.2 1612.2 702.1 C 1606.9 706.8 1602.3 712 1603.5 712 C 1603.8 712 1607.1 710.1 1610.8 707.8 Z" style="fill: url(#color-3);">
      <title>coag</title>
    </path>
    <path d="M1791 612.5 c0 -1.8 18.7 -51.5 23 -61 2.3 -5.1 14.5 -35 19.5 -47.5 8.5 -21.6 15.8 -32.7 25.8 -39.1 5.4 -3.5 9.7 -5 9.7 -3.3 0 0.4 0.9 5.9 1.9 12.3 3.7 22.1 4.3 31.7 3.8 56.1 -0.3 12.9 -0.9 25.1 -1.2 27 -0.4 1.9 -0.8 9.6 -1 17 -0.2 7.4 -0.8 14.7 -1.4 16.2 -2 5.3 -6.6 7 -27.1 10.3 -8.1 1.4 -47.6 10.6 -51.6 12.2 -0.8 0.3 -1.4 0.2 -1.4 -0.2z m14.6 -9 c7.9 -2.3 31 -7.2 42.4 -9 12.1 -2 16.4 -3.5 18 -6.4 0.6 -1.2 1.3 -8.7 1.5 -16.8 0.2 -8.2 0.8 -19.3 1.4 -24.8 2 -19.4 1 -46.5 -2.5 -68.2 -1.9 -11.8 -1.9 -11.8 -10.3 -3.5 -5.8 5.7 -10.6 13.7 -15.9 26.8 -5.1 12.7 -20.4 50.1 -25.4 62.4 -2.2 5.2 -6.1 15.4 -8.8 22.5 -2.7 7.2 -5.3 14.2 -5.9 15.8 -1.2 3.1 -1.1 3.2 5.5 1.2z" style="fill: url(#color-3);">
      <title>a</title>
    </path>
    <path d="M 2292.8 788.5 C 2291.9 786.4 2292 785 2293.8 780.7 C 2302.6 759.2 2301.9 741.3 2290.5 694.2 C 2285.5 673.9 2284.4 667.9 2282.2 649.5 L 2281.5 643.5 L 2278 648.5 C 2276.2 651.3 2272.8 655.8 2270.6 658.6 C 2268.3 661.4 2265.3 665.2 2263.8 667.1 C 2262.4 669 2259.7 672.1 2258 674 C 2255.3 676.9 2249.4 684.1 2242 693.4 C 2241.2 694.5 2238.3 697.9 2235.5 701 C 2232.8 704.1 2227 710.7 2222.8 715.6 C 2207.4 733.4 2190.7 747.5 2176.1 754.9 C 2170.6 757.8 2159.5 757.8 2154 755 C 2146.7 751.3 2142.7 743 2141 728.2 C 2140 720.2 2140 711.3 2140.9 689.7 C 2142.1 662 2144.6 622.9 2145.5 618 C 2145.8 616.6 2147.1 605.6 2148.5 593.5 C 2151 571.4 2156.6 529.1 2159.7 508.5 C 2161.4 496.8 2162.1 463.8 2160.7 458.7 C 2159.8 455.3 2159 455.4 2146.7 461.6 C 2137.3 466.3 2134.1 466.9 2131.6 464.4 C 2129.2 462 2129.7 458.9 2133.6 452.5 C 2143.3 436.3 2155.8 424.9 2187.9 403.1 C 2199 395.6 2205.2 392 2207.1 392 C 2209.9 392 2213 394.2 2213 396.3 C 2213 398.8 2209 421.2 2206.5 432.6 C 2196.1 480.3 2192.4 510.1 2186.9 589 C 2184.5 622.8 2184.1 659.6 2185.8 678.8 C 2186.8 689.8 2187.2 691.6 2189.6 694.7 C 2192.1 698 2192.5 698.2 2197.1 697.8 C 2204.1 697.1 2210.6 692.4 2227.3 675.7 C 2242.2 660.9 2250.6 651.6 2256.1 644 C 2257.9 641.5 2259.6 639.3 2260 639 C 2261.4 638 2272.8 620.3 2275.6 615 L 2278.4 609.5 L 2279.1 581 C 2279.6 561.8 2280.6 546.1 2282.1 533 C 2284.1 515.9 2284.4 508.5 2284.5 471.8 C 2284.5 471.8 2283.205 443.883 2284.6 430.2 C 2287.809 423.387 2292.9 420.7 2297.3 417.5 C 2301.7 414.3 2308.2 408.5 2311.9 404.7 C 2326.3 389.5 2326.9 389 2329.4 389 C 2332.2 389 2335 391.3 2335.1 393.8 C 2335.5 402.2 2334.7 410.1 2332.5 418.5 C 2330 428.3 2327.3 444.1 2326.4 455 C 2326.1 458 2325.5 463.4 2325 467 C 2321.4 491.2 2318.6 544.9 2319.4 573 C 2320.2 601.2 2322.4 631.5 2325.5 657 C 2326.3 663.9 2328.4 680.8 2330 694.5 C 2333.9 727.2 2333 724.1 2338.7 722.4 C 2345.4 720.4 2350 720.7 2355.6 723.5 C 2358.3 724.9 2360.6 725.6 2360.8 725.2 C 2361 724.8 2364.4 719.1 2368.6 712.5 C 2389 679.7 2403.2 640.4 2412.5 591 C 2423.9 530.4 2427 469.5 2420.4 431.6 C 2418.2 418.8 2418.4 418.5 2427.8 416.4 C 2437.8 414.3 2448.7 409.7 2463.1 401.7 C 2486.5 388.7 2497.1 384.7 2511.7 383 C 2521.2 382 2523.6 382.6 2524.6 386.5 C 2525.2 389.1 2523.2 393.4 2519.2 398.1 C 2517.5 400.1 2504.2 416.3 2499.5 422.2 C 2498.8 423.1 2497.7 424.7 2497.1 425.8 C 2496.5 426.9 2495.4 428.5 2494.6 429.2 C 2490.3 433.5 2481.2 453.3 2474.8 472 C 2466.5 496.4 2458.2 531.4 2449.5 578.5 C 2438.7 637.1 2429.5 674.7 2420 698.4 C 2418.3 702.7 2417.1 706.4 2417.3 706.6 C 2418 707.3 2447.1 711.9 2458.5 713.2 C 2474.9 715 2507.4 714.7 2519.4 712.6 C 2551.7 707.1 2578.5 694.7 2594 678.2 C 2600.2 671.6 2602.2 669.3 2610.7 658.8 C 2615.4 653.1 2621.7 648 2624.1 648 C 2626.4 648 2630 651.4 2630 653.6 C 2630 656.3 2622.2 674.1 2613.9 690.5 C 2600.3 717.2 2595.9 729.6 2594.1 745.9 C 2593.6 750.9 2592.7 754.6 2591.8 755.1 C 2588.7 757.1 2569.6 755.6 2525.5 749.9 C 2502.2 746.8 2498.4 746.6 2470.5 746.6 C 2452 746.5 2436.9 747 2431 747.8 C 2425.8 748.5 2410.5 750.4 2397 752 C 2383.5 753.7 2369.9 755.4 2366.8 755.8 C 2363.6 756.3 2356 757 2353.5 757 C 2349.6 757 2348.8 756.6 2347.8 754.5 C 2346.9 752.5 2347 751.1 2348.3 747.8 C 2349.2 745.5 2349.9 743.5 2349.7 743.4 C 2349.6 743.3 2347 745 2344 747.2 C 2338 751.7 2331.9 758.6 2324.2 769.5 C 2318.2 777.9 2308.4 787.5 2303.6 789.5 C 2298.1 791.8 2294.2 791.5 2292.8 788.5 Z M 2304.2 783 C 2306.8 781.3 2310.5 777.8 2312.6 775.2 C 2314.7 772.6 2316.7 770.3 2317.1 770 C 2317.5 769.7 2319.3 767.3 2321.2 764.5 C 2330.4 750.7 2336.3 745 2349.2 737.2 C 2353.5 734.6 2356.9 732.1 2356.9 731.5 C 2356.9 731 2355.8 729.7 2354.4 728.7 C 2351.3 726.4 2343 726.3 2337.9 728.4 C 2335.9 729.2 2333.1 730.1 2331.6 730.4 C 2329.3 730.8 2329 730.6 2328.9 727.7 C 2328.8 723.5 2328.7 722.5 2325.7 702 C 2322.9 683.3 2318.5 644.4 2317.5 629.5 C 2314.5 587.7 2313.7 557 2315 533.2 C 2315.7 520.7 2316.4 507.1 2316.6 503 C 2317.9 478.3 2323.3 432.4 2326.1 422.5 C 2329.1 412.1 2329.1 412.1 2329.7 403.3 C 2330 398.7 2330 395 2329.6 395 C 2329.2 395 2323.1 400.9 2316.1 408 C 2309.1 415.1 2297.6 424.1 2295.2 426 C 2289.5 430.5 2288.4 434.3 2289.9 445 C 2291.2 455 2291.3 486.8 2290 503.5 C 2289.5 510.1 2288.1 524.3 2287 535 C 2285.6 547 2284.5 565.5 2284.1 583 L 2283.4 611.5 L 2280.2 617.7 C 2275.5 626.8 2264.1 643.7 2257.7 651 C 2255.9 653 2252.9 656.7 2251 659.1 C 2245.6 665.9 2217.6 693.5 2212.4 697 C 2206.5 701.2 2197.4 704.3 2194.1 703.5 C 2187.6 701.9 2182.9 696.7 2181.4 689.7 C 2179.2 679.1 2178.4 633 2180 612.5 C 2180.5 606.5 2181.6 591.4 2182.4 579 C 2184.7 547.2 2187.7 514.1 2190 496 C 2191.1 487.5 2192.2 478.8 2192.5 476.8 C 2193 472.6 2194.7 463.6 2199.5 440 C 2204.8 414.3 2207.1 401 2206.8 399 C 2206.5 397.4 2205.7 397.7 2200.4 401.3 C 2197 403.6 2192.9 406.5 2191.1 407.8 C 2189.4 409.1 2184.3 412.1 2181.5 414 C 2178.8 415.9 2176.3 417.6 2176 418 C 2175.7 418.3 2173 420.4 2169.9 422.6 C 2161.6 428.5 2149.5 439.7 2144.6 446.1 C 2139.6 452.5 2134.5 461 2135.6 461 C 2136 461 2140.1 458.9 2144.7 456.4 C 2155.4 450.6 2161.1 450 2164.4 454.3 C 2166.4 457 2166.5 458.2 2166.4 478.8 C 2166.3 498.7 2166 503 2162.1 530.5 C 2157.7 561.9 2153.2 595.3 2152.5 603 C 2152.3 605.5 2151.4 614.3 2150.6 622.5 C 2149.8 630.8 2148.6 647.2 2148 659 C 2147.4 670.8 2146.5 686.8 2146 694.5 C 2144.6 713.2 2144.7 718.3 2146.5 729.6 C 2148.4 741.1 2150.7 746 2155.7 749.5 C 2168.4 758.1 2189.9 744.5 2222.9 706.9 C 2252.2 673.5 2272.7 647.9 2277.7 638.3 C 2279.3 635.4 2281.6 630.7 2282.4 630.1 C 2284.4 628.4 2286.1 635.6 2288 653.5 C 2289.5 667.3 2288.6 663.1 2297.8 702 C 2304.2 728.8 2305.4 738 2304.7 754 C 2304.2 766.7 2302.5 774.9 2299.1 782 C 2296.7 786.9 2297.9 787.1 2304.2 783 Z M 2379 749 C 2387.5 747.8 2395.7 746.7 2397.3 746.5 C 2448.3 739.3 2490.4 739.1 2536.4 745.9 C 2554.5 748.6 2585.2 751.5 2587.3 750.7 C 2588.5 750.2 2589 748.9 2589 745.8 C 2589.1 733.5 2594.9 716.4 2608.1 690.3 C 2618 670.7 2624.6 655.3 2623.5 654.2 C 2622.8 653.5 2618 658.6 2609.4 669.3 C 2601.8 678.6 2590.4 690 2585 693.6 C 2577.3 698.8 2558.9 707.7 2549.5 710.8 C 2539.4 714.1 2523.3 717.7 2515 718.5 C 2512 718.7 2502.4 719.3 2493.6 719.6 C 2480.7 720.2 2469.3 718.8 2463.4 718.4 C 2447.8 717.6 2412 712.3 2410.2 710.5 C 2409.9 710.3 2411.7 704.7 2414.2 698.3 C 2419.8 683.9 2425.9 663.8 2430 646.5 C 2431.7 639.4 2433.5 631.7 2434.1 629.5 C 2434.7 627.3 2435.3 624.6 2435.5 623.5 C 2435.6 622.4 2437.2 614.3 2438.9 605.5 C 2440.6 596.7 2442.2 588.4 2442.5 587 C 2444 578.9 2446.9 563.9 2450.7 545 C 2453.1 533.2 2455.2 522.6 2455.4 521.5 C 2456.5 515.2 2464.5 486.6 2468.3 475 C 2479.7 440.3 2488.6 424.7 2511.4 399.2 C 2513.1 397.4 2515.4 394.1 2516.7 392 L 2519.1 388 L 2514.5 388 C 2503.9 388 2485.8 394.7 2468.5 405.1 C 2462.3 408.8 2445.3 416.8 2439 418.9 C 2435 420.3 2431.4 420.9 2429.5 420.6 C 2424.8 419.7 2423.9 422.1 2425.6 431 C 2430.9 459.2 2429.5 518.8 2422.5 563.8 C 2421.6 569.1 2420.7 575.1 2420.4 577 C 2417.9 594.6 2409.791 630.162 2403.9 648 C 2394.728 675.77 2381.9 701.1 2372.2 717 C 2361.3 734.9 2360.6 736.1 2355.5 745.4 L 2351.8 752.3 L 2357.6 751.7 C 2360.9 751.3 2370.5 750.1 2379 749 Z" style="fill: url(#color-3);">
      <title>ul</title>
    </path>
  </g>
</svg>